-------------------------------------------------------------------------------
Test set: coe.neu.edu.web.OwnerControllerTests
-------------------------------------------------------------------------------
Tests run: 11, Failures: 0, Errors: 0, Skipped: 0, Time elapsed: 0.724 sec
