-------------------------------------------------------------------------------
Test set: coe.neu.edu.model.ValidatorTests
-------------------------------------------------------------------------------
Tests run: 1, Failures: 0, Errors: 0, Skipped: 0, Time elapsed: 0.753 sec
