-------------------------------------------------------------------------------
Test set: coe.neu.edu.service.ClinicServiceJpaTests
-------------------------------------------------------------------------------
Tests run: 11, Failures: 0, Errors: 0, Skipped: 0, Time elapsed: 1.809 sec
